trial_no,sentence,set,condition,full_condition,shape0,shape1,shape2,shape3,color0,color1,color2,color3,filename
0,There will be a square and it will be green.,conj,conj1false,conj_conj1false,TRIANGLE,CIRCLE,TRIANGLE,CIRCLE,GREEN,RED,BLUE,BLUE,conj_conj1false_0.svg
1,There will be a triangle and it will be blue.,conj,conj1false,conj_conj1false,CIRCLE,CIRCLE,CIRCLE,CIRCLE,GREEN,RED,RED,BLUE,conj_conj1false_1.svg
2,There will be a triangle and it will be green.,conj,conj1false,conj_conj1false,CIRCLE,SQUARE,CIRCLE,CIRCLE,GREEN,GREEN,RED,RED,conj_conj1false_2.svg
0,There will be a square and it will be blue.,conj,conj2false,conj_conj2false,SQUARE,CIRCLE,CIRCLE,TRIANGLE,RED,RED,RED,BLUE,conj_conj2false_0.svg
1,There will be a triangle and it will be green.,conj,conj2false,conj_conj2false,SQUARE,CIRCLE,CIRCLE,TRIANGLE,RED,RED,RED,BLUE,conj_conj2false_1.svg
2,There will be a triangle and it will be green.,conj,conj2false,conj_conj2false,SQUARE,TRIANGLE,SQUARE,CIRCLE,GREEN,BLUE,GREEN,BLUE,conj_conj2false_2.svg
0,There will be a circle and it will be red.,conj,exists,conj_exists,TRIANGLE,CIRCLE,CIRCLE,SQUARE,RED,RED,BLUE,GREEN,conj_exists_0.svg
1,There will be a circle and it will be green.,conj,exists,conj_exists,CIRCLE,CIRCLE,TRIANGLE,TRIANGLE,RED,GREEN,GREEN,RED,conj_exists_1.svg
2,There will be a square and it will be blue.,conj,exists,conj_exists,TRIANGLE,SQUARE,SQUARE,TRIANGLE,BLUE,BLUE,RED,GREEN,conj_exists_2.svg
0,There will be a triangle and it will be green.,conj,all,conj_all,SQUARE,CIRCLE,TRIANGLE,TRIANGLE,RED,RED,GREEN,GREEN,conj_all_0.svg
1,There will be a square and it will be red.,conj,all,conj_all,CIRCLE,CIRCLE,SQUARE,SQUARE,RED,BLUE,RED,RED,conj_all_1.svg
2,There will be a triangle and it will be red.,conj,all,conj_all,TRIANGLE,TRIANGLE,SQUARE,CIRCLE,RED,RED,BLUE,RED,conj_all_2.svg
0,There will be a triangle and it will be green.,conj,unique,conj_unique,SQUARE,CIRCLE,TRIANGLE,SQUARE,RED,RED,GREEN,RED,conj_unique_0.svg
1,There will be a square and it will be green.,conj,unique,conj_unique,SQUARE,TRIANGLE,TRIANGLE,TRIANGLE,GREEN,RED,GREEN,BLUE,conj_unique_1.svg
2,There will be a circle and it will be green.,conj,unique,conj_unique,TRIANGLE,SQUARE,CIRCLE,TRIANGLE,RED,RED,GREEN,RED,conj_unique_2.svg
0,Either there won't be a circle or it will be blue.,disj,false,disj_false,CIRCLE,TRIANGLE,SQUARE,SQUARE,RED,BLUE,BLUE,BLUE,disj_false_0.svg
1,Either there won't be a square or it will be blue.,disj,false,disj_false,TRIANGLE,SQUARE,CIRCLE,CIRCLE,GREEN,GREEN,RED,RED,disj_false_1.svg
2,Either there won't be a square or it will be blue.,disj,false,disj_false,CIRCLE,SQUARE,TRIANGLE,CIRCLE,GREEN,GREEN,BLUE,GREEN,disj_false_2.svg
0,Either there won't be a triangle or it will be red.,disj,exists,disj_exists,TRIANGLE,CIRCLE,TRIANGLE,SQUARE,RED,BLUE,GREEN,GREEN,disj_exists_0.svg
1,Either there won't be a square or it will be blue.,disj,exists,disj_exists,SQUARE,CIRCLE,SQUARE,CIRCLE,BLUE,RED,GREEN,GREEN,disj_exists_1.svg
2,Either there won't be a circle or it will be blue.,disj,exists,disj_exists,SQUARE,CIRCLE,CIRCLE,SQUARE,RED,BLUE,RED,BLUE,disj_exists_2.svg
0,Either there won't be a circle or it will be green.,disj,all,disj_all,CIRCLE,TRIANGLE,TRIANGLE,CIRCLE,GREEN,GREEN,BLUE,GREEN,disj_all_0.svg
1,Either there won't be a circle or it will be green.,disj,all,disj_all,TRIANGLE,CIRCLE,SQUARE,CIRCLE,BLUE,GREEN,RED,GREEN,disj_all_1.svg
2,Either there won't be a triangle or it will be red.,disj,all,disj_all,TRIANGLE,TRIANGLE,CIRCLE,SQUARE,RED,RED,GREEN,BLUE,disj_all_2.svg
0,Either there won't be a circle or it will be red.,disj,unique,disj_unique,TRIANGLE,CIRCLE,TRIANGLE,TRIANGLE,BLUE,RED,GREEN,BLUE,disj_unique_0.svg
1,Either there won't be a triangle or it will be red.,disj,unique,disj_unique,CIRCLE,CIRCLE,SQUARE,TRIANGLE,RED,BLUE,GREEN,RED,disj_unique_1.svg
2,Either there won't be a triangle or it will be green.,disj,unique,disj_unique,SQUARE,TRIANGLE,SQUARE,CIRCLE,BLUE,GREEN,GREEN,GREEN,disj_unique_2.svg
0,Either there won't be a triangle or it will be green.,disj,truefirst,disj_truefirst,CIRCLE,SQUARE,SQUARE,CIRCLE,BLUE,BLUE,BLUE,RED,disj_truefirst_0.svg
1,Either there won't be a triangle or it will be green.,disj,truefirst,disj_truefirst,CIRCLE,CIRCLE,SQUARE,CIRCLE,BLUE,BLUE,RED,BLUE,disj_truefirst_1.svg
2,Either there won't be a triangle or it will be blue.,disj,truefirst,disj_truefirst,SQUARE,CIRCLE,CIRCLE,SQUARE,GREEN,RED,BLUE,BLUE,disj_truefirst_2.svg
